%YAML 1.1
%TAG !u! tag:unity3d.com,2011:
--- !u!21 &2100000
Material:
  serializedVersion: 6
  m_ObjectHideFlags: 0
  m_CorrespondingSourceObject: {fileID: 0}
  m_PrefabInstance: {fileID: 0}
  m_PrefabAsset: {fileID: 0}
  m_Name: Robot Toon
  m_Shader: {fileID: -6465566751694194690, guid: ced7b8d44d5c63141b36ac8827a0f3bd,
    type: 3}
  m_ShaderKeywords: 
  m_LightmapFlags: 4
  m_EnableInstancingVariants: 0
  m_DoubleSidedGI: 0
  m_CustomRenderQueue: -1
  stringTagMap: {}
  disabledShaderPasses: []
  m_SavedProperties:
    serializedVersion: 3
    m_TexEnvs:
    - Texture2D_D034101F:
        m_Texture: {fileID: 2800000, guid: 0a0e8af2869fa45f78e25460db578482, type: 3}
        m_Scale: {x: 1, y: 1}
        m_Offset: {x: 0, y: 0}
    m_Floats:
    - Vector1_244AB154: 0
    - Vector1_2E75101: 0
    - Vector1_6B74398: 0
    - Vector1_9F93479E: 0
    m_Colors:
    - Color_2E943B4F: {r: 0.078987174, g: 0.07954801, b: 0.23584905, a: 0}
    - Color_74E46C2F: {r: 0, g: 0, b: 0, a: 0}
--- !u!114 &2815797442516091401
MonoBehaviour:
  m_ObjectHideFlags: 11
  m_CorrespondingSourceObject: {fileID: 0}
  m_PrefabInstance: {fileID: 0}
  m_PrefabAsset: {fileID: 0}
  m_GameObject: {fileID: 0}
  m_Enabled: 1
  m_EditorHideFlags: 0
  m_Script: {fileID: 11500000, guid: d0353a89b1f911e48b9e16bdc9f2e058, type: 3}
  m_Name: 
  m_EditorClassIdentifier: 
  version: 2
